{
  "VMX_PATH": "./base-images/ob70-base/ob70-base.vmx",
  "ROOT_PASS": "root123",

  "VM_NAME": "ob70-router-nonat",
  "VM_NET0": "vmnet8",
  "VM_NET1": "vmnet25",
  "VM_NET2": "vmnet30",

  "HOST_NAME": "ob70-router-nonat",
  "ANSIBLE_GROUP": "ob70"
}
